{
  "darkStoneForgeUpgrades": {

  },

  "entertainment": {

  },

  "injections": {
    "antiVenom": {
      "title": "Anti-Venom Injection",
      "keywords": {
        "keyword0": "Boost",
        "keyword1": "Injection"
      },

      "cost": {
        "money": "10",
        "darkStone": "0"
      },

      "restriction": "Limit One Injection at a time.",
      "quote": "Made from samples of Void Spider venom recovered from the mines.",
      "description": "For the next Adventure, you are Immune to all Poison and Venom markers and effects.",
      "summary": "Immunity from Poisom, Venom, and effects for the next Adventure."
    },

    "sycorathInjection": {
      "title": "Sycorath Injection",
      "keywords": {
        "keyword0": "Boost",
        "keyword1": "Injection"
      },

      "cost": {
        "money": "250",
        "darkStone": "0"
      },

      "restriction": "Limit one Injection at a time.",
      "quote": "Extracted from the third sack of a Hellbat's lower abdomen, this intense liquid speeds response time and heightens awareness. It can also, however, be powerfully addictive.",
      "description": "For the next Adventure, you are +1 Initiative and +1 Move. You also immediately gain 1 Corruption point. The next time you go on an Adventure without taking a Sycorath Injection, you are -1 Initiative (Minimum of 1). as you suffer from temporary withdrawls.",
      "summary": "+1 Corruption Point. +1 Initiative, +1 Move for the next Adventure. -1 Initiative on the following Adventure."
    },

    "voidVaporInjection": {
      "title": "Void Vapor Injection",
      "keywords": {
        "keyword0": "Boost",
        "keyword1": "Injection",
        "keyword2": "Void"
      },

      "cost": {
        "money": "500",
        "darkStone": "0"
      },

      "restriction": "Limit One Injection at a time.",
      "qutoe": "A potent serum distilled from the hefty mucus often found near portals to Other Worlds.",
      "description": "For the next Adventure, you are +1 Max Grit and you start the Adventure with Max Grit. You also immediately gain 1 Corruption Point.",
      "summary": "+1 Corruption Point. +1 Max Grit, start with Max Grit."
    },

    "darkStoneInjection": {
      "title": "Dark Stone Injection",
      "keywords": {
        "keyword0": "Boost",
        "keyword1": "Injection",
        "keyword3": "Dark Stone"
      },

      "cost": {
        "money": "100",
        "darkStone": "0"
      },

      "restricion": "Limit One Injection at a time.",
      "quote": "A vaccine of sorts, made from tiny particles of Dark Stone.",
      "description": "For the next Adventure, once per turn, you may Re-roll one failed Willpower save to prevent a Curruption Hit.",
      "summary": "For the next Adventure, once per turn, reroll 1 failed Willpower roll to prevent a Corruption Hit."
    }
  },

  "outpostBank": {
    "sellDarkStone": {
      "title": "Outpost Bank",
      "cost": {
        "money": "0",
        "darkStone": "1"
      },
      "description": "You may sell Dark Stone shards at the Outpost Bank for D6x$25 each. Roll for each shard individually as they vary in size, weight, and value.",
      "summary": "D6x$25 for each Dark Stone you wish to sell."
    },

    "holdUpTheOutpostBank": {
      "title": "Hold Up The Outpost Bank",
      "restriction": "Outlaw Only",
      "description": "Make an Agility 5+ test to rob the Outpost Bank. If successful, gain D6x$50 for each 5+ rolled. For each 1 rolled, take D6 Hits during the shoot out that ensues. If failed, you are arrested and set to hang in the morning. Make a Cunning 3+ test to escape the jail (gain 20xp) and flee Town (ending your Town Stay). If failed, you are hung at dawn... Your Hero is killed.",
      "summary": "Agility 5+ roll. If successful D6x$50. If 1 is rolled take D6 Hits. If failed, you are arrested. Make Cunning 3+ test to escape(gain 20xp). If you fail, you die."
    }
  },

  "trainingAndBounties": {
    "trainWithSoldiers": {
      "title": "Train With Soldiers",
      "cost": {
        "money": "500",
        "darkStone": "0"
      },
      "restriction": "Limit Once per Town Stay",
      "description": "Training with the soldiers at the Outpost is a good way to hone your skills. You gain D6x25 XP for your training efforts.",
      "summary": "D6x25 XP."
    },

    "bounty": {
      "title": "Bounty",
      "cost": {
        "money": "0",
        "darkStone": "0"
      },
      "description": "There's always someone... or something that's 'Wanted' in these parts. Roll a D6 to see what the current Bounty is at the Outpost.",
      "summary": "Roll a D6 for bounty:",
      "bounties": {
        "roll1": "No Bounty - No current Bounty available.",
        "roll2": "Tentacles - $10 for each killed.",
        "roll3": "HellBats - $25 for each killed.",
        "roll4": "Stranglers - $50 for each killed.",
        "roll5": "Night Terrors - $150 to every Hero for each killed.",
        "roll6": "Slashers - $200 to every Hero for each killed."
      }
    }
  }
}
